rivera_out.txt
[2026-03-01 07:25:53 UTC] vlib work && vlog '-timescale' '1ns/1ns' design.sv testbench.sv  && vsim -c -do "vsim +access+r; run -all; exit"  
VSIMSA: Configuration file changed: `/home/runner/library.cfg'
ALIB: Library "work" attached.
work = ./work/work.lib
MESSAGE "ASRT_7002: Due to optimizations some assertions from source code will be evaluated in non LRM complaint mode. Use switch -ao_off to turn off this optimization."
MESSAGE "Unit top modules: tb."
SUCCESS "Compile success 0 Errors 0 Warnings  Analysis time: 0[s]."
done
# Aldec, Inc. Riviera-PRO version 2025.04.139.9738 built for Linux64 on May 30, 2025.
# HDL, SystemC, and Assertions simulator, debugger, and design environment.
# (c) 1999-2025 Aldec, Inc. All rights reserved.
# ELBREAD: Elaboration process.
# ELBREAD: Elaboration time 0.0 [s].
# KERNEL: Main thread initiated.
# KERNEL: Kernel process initialization phase.
# ELAB2: Elaboration final pass...
# ELAB2: Create instances ...
# KERNEL: Time resolution set to 1ns.
# ELAB2: Create instances complete.
# SLP: Started
# SLP: Elaboration phase ...
# SLP: Elaboration phase ... done : 0.0 [s]
# SLP: Generation phase ...
# SLP: Generation phase ... done : 0.1 [s]
# SLP: Finished : 0.1 [s]
# SLP: 0 primitives and 5 (62.50%) other processes in SLP
# SLP: 27 (6.19%) signals in SLP and 15 (3.44%) interface signals
# ELAB2: Elaboration final pass complete - time: 0.1 [s].
# KERNEL: SLP loading done - time: 0.0 [s].
# KERNEL: Warning: You are using the Riviera-PRO EDU Edition. The performance of simulation is reduced.
# KERNEL: Warning: Contact Aldec for available upgrade options - sales@aldec.com.
# KERNEL: SLP simulation initialization done - time: 0.0 [s].
# KERNEL: Kernel process initialization done.
# Allocation: Simulator allocated 5505 kB (elbread=463 elab2=5002 kernel=40 sdf=0)
# KERNEL: ASDB file was created in location /home/runner/dataset.asdb
# KERNEL: [GEN ] T=45 WR=1 RD=0 ADDR=2e DATA=4692eb62
# KERNEL: [GEN ] T=45 WR=1 RD=0 ADDR=23 DATA=1d21c58c
# KERNEL: [GEN ] T=45 WR=0 RD=1 ADDR=10 DATA=4360c359
# KERNEL: [GEN ] T=45 WR=1 RD=0 ADDR=14 DATA=07574a75
# KERNEL: [GEN ] T=45 WR=1 RD=0 ADDR=2c DATA=e33fb40d
# KERNEL: [GEN ] T=45 WR=1 RD=0 ADDR=2e DATA=ac590fcc
# KERNEL: [GEN ] T=45 WR=1 RD=0 ADDR=14 DATA=85494fde
# KERNEL: [GEN ] T=45 WR=1 RD=0 ADDR=00 DATA=2f79f892
# KERNEL: [GEN ] T=45 WR=0 RD=1 ADDR=14 DATA=c83f2a11
# KERNEL: [GEN ] T=45 WR=1 RD=0 ADDR=27 DATA=e7c3712c
# KERNEL: [GEN ] T=45 WR=0 RD=1 ADDR=21 DATA=644abc4b
# KERNEL: [GEN ] T=45 WR=0 RD=1 ADDR=00 DATA=fdbdbe6e
# KERNEL: [GEN ] T=45 WR=0 RD=1 ADDR=08 DATA=5fc36e2c
# KERNEL: [GEN ] T=45 WR=1 RD=0 ADDR=14 DATA=380f500a
# KERNEL: [GEN ] T=45 WR=0 RD=1 ADDR=20 DATA=8b87d276
# KERNEL: [GEN ] T=45 WR=1 RD=0 ADDR=20 DATA=970e94e9
# KERNEL: [GEN ] T=45 WR=1 RD=0 ADDR=08 DATA=30121396
# KERNEL: [GEN ] T=45 WR=1 RD=0 ADDR=26 DATA=c0ccf29e
# KERNEL: [GEN ] T=45 WR=1 RD=0 ADDR=23 DATA=60d7be8a
# KERNEL: [GEN ] T=45 WR=1 RD=0 ADDR=14 DATA=ac299cbc
# KERNEL: [GEN ] T=45 WR=0 RD=1 ADDR=10 DATA=213389d0
# KERNEL: [GEN ] T=45 WR=0 RD=1 ADDR=10 DATA=ad75cd66
# KERNEL: [GEN ] T=45 WR=0 RD=1 ADDR=04 DATA=61606342
# KERNEL: [GEN ] T=45 WR=0 RD=1 ADDR=04 DATA=563ff66a
# KERNEL: [GEN ] T=45 WR=0 RD=1 ADDR=25 DATA=62824b91
# KERNEL: [GEN ] T=45 WR=1 RD=0 ADDR=26 DATA=ff9fbe07
# KERNEL: [GEN ] T=45 WR=1 RD=0 ADDR=25 DATA=fb89dabc
# KERNEL: [GEN ] T=45 WR=0 RD=1 ADDR=2c DATA=9b2484c4
# KERNEL: [GEN ] T=45 WR=0 RD=1 ADDR=29 DATA=659a7c98
# KERNEL: [GEN ] T=45 WR=0 RD=1 ADDR=14 DATA=d57c0671
# KERNEL: [GEN ] T=45 WR=0 RD=1 ADDR=2f DATA=d56deb5c
# KERNEL: [GEN ] T=45 WR=1 RD=0 ADDR=24 DATA=4d46572e
# KERNEL: [GEN ] T=45 WR=1 RD=0 ADDR=08 DATA=c3d7578d
# KERNEL: [GEN ] T=45 WR=1 RD=0 ADDR=21 DATA=06e8c578
# KERNEL: [GEN ] T=45 WR=1 RD=0 ADDR=00 DATA=ac5e2323
# KERNEL: [GEN ] T=45 WR=0 RD=1 ADDR=2f DATA=03b04cac
# KERNEL: [GEN ] T=45 WR=0 RD=1 ADDR=2c DATA=43a2df20
# KERNEL: [GEN ] T=45 WR=0 RD=1 ADDR=14 DATA=5bf66dd5
# KERNEL: [GEN ] T=45 WR=1 RD=0 ADDR=04 DATA=76ba8054
# KERNEL: [GEN ] T=45 WR=0 RD=1 ADDR=00 DATA=f962ccf6
# KERNEL: [GEN ] T=45 WR=0 RD=1 ADDR=08 DATA=7ca44f01
# KERNEL: [GEN ] T=45 WR=0 RD=1 ADDR=10 DATA=c1de7f82
# KERNEL: [GEN ] T=45 WR=0 RD=1 ADDR=2f DATA=a052f836
# KERNEL: [GEN ] T=45 WR=0 RD=1 ADDR=10 DATA=1095a88c
# KERNEL: [GEN ] T=45 WR=0 RD=1 ADDR=04 DATA=1690bd1a
# KERNEL: [GEN ] T=45 WR=0 RD=1 ADDR=24 DATA=dfd9fb8c
# KERNEL: [GEN ] T=45 WR=1 RD=0 ADDR=00 DATA=75e83474
# KERNEL: [GEN ] T=45 WR=1 RD=0 ADDR=2d DATA=9c999234
# KERNEL: [GEN ] T=45 WR=0 RD=1 ADDR=24 DATA=4980577e
# KERNEL: [GEN ] T=45 WR=0 RD=1 ADDR=22 DATA=8eef70d9
# KERNEL: [GEN ] T=45 WR=1 RD=0 ADDR=08 DATA=7e2462db
# KERNEL: [GEN ] T=45 WR=0 RD=1 ADDR=08 DATA=c7e53dbb
# KERNEL: [GEN ] T=45 WR=1 RD=0 ADDR=24 DATA=c7caf3e3
# KERNEL: [GEN ] T=45 WR=0 RD=1 ADDR=04 DATA=8d7c36d8
# KERNEL: [GEN ] T=45 WR=1 RD=0 ADDR=2c DATA=01bdb4d1
# KERNEL: [GEN ] T=45 WR=0 RD=1 ADDR=04 DATA=94feef8a
# KERNEL: [GEN ] T=45 WR=0 RD=1 ADDR=24 DATA=3a639686
# KERNEL: [GEN ] T=45 WR=0 RD=1 ADDR=24 DATA=0d7c9977
# KERNEL: [GEN ] T=45 WR=0 RD=1 ADDR=10 DATA=3ba704b5
# KERNEL: [GEN ] T=45 WR=0 RD=1 ADDR=2e DATA=9bee22ee
# KERNEL: [GEN ] T=45 WR=0 RD=1 ADDR=10 DATA=ceb0f9cb
# KERNEL: [GEN ] T=45 WR=0 RD=1 ADDR=2c DATA=d795431f
# KERNEL: [GEN ] T=45 WR=0 RD=1 ADDR=14 DATA=1c5ea54c
# KERNEL: [GEN ] T=45 WR=1 RD=0 ADDR=10 DATA=c009370b
# KERNEL: [GEN ] T=45 WR=0 RD=1 ADDR=08 DATA=3b6d8432
# KERNEL: [GEN ] T=45 WR=1 RD=0 ADDR=14 DATA=0e41d1d8
# KERNEL: [GEN ] T=45 WR=0 RD=1 ADDR=2b DATA=f04eca41
# KERNEL: [GEN ] T=45 WR=0 RD=1 ADDR=27 DATA=7a880547
# KERNEL: [GEN ] T=45 WR=1 RD=0 ADDR=2a DATA=a9db08b2
# KERNEL: [GEN ] T=45 WR=1 RD=0 ADDR=04 DATA=375eebf0
# KERNEL: [GEN ] T=45 WR=1 RD=0 ADDR=2d DATA=d2e48e80
# KERNEL: [GEN ] T=45 WR=0 RD=1 ADDR=28 DATA=1822dcad
# KERNEL: [GEN ] T=45 WR=1 RD=0 ADDR=2c DATA=07176e50
# KERNEL: [GEN ] T=45 WR=1 RD=0 ADDR=21 DATA=555c626b
# KERNEL: [GEN ] T=45 WR=1 RD=0 ADDR=26 DATA=ccaff3a6
# KERNEL: [GEN ] T=45 WR=1 RD=0 ADDR=2b DATA=94f26032
# KERNEL: [GEN ] T=45 WR=1 RD=0 ADDR=21 DATA=3bad89ef
# KERNEL: [GEN ] T=45 WR=1 RD=0 ADDR=23 DATA=d6153aa8
# KERNEL: [GEN ] T=45 WR=0 RD=1 ADDR=25 DATA=f90cd6eb
# KERNEL: [GEN ] T=45 WR=0 RD=1 ADDR=10 DATA=f100c6fe
# KERNEL: [GEN ] T=45 WR=1 RD=0 ADDR=27 DATA=5c34fa85
# KERNEL: [GEN ] T=45 WR=1 RD=0 ADDR=08 DATA=b7e41a62
# KERNEL: [GEN ] T=45 WR=0 RD=1 ADDR=00 DATA=82d15fb4
# KERNEL: [GEN ] T=45 WR=0 RD=1 ADDR=00 DATA=90a290fc
# KERNEL: [GEN ] T=45 WR=0 RD=1 ADDR=00 DATA=afe4bc14
# KERNEL: [GEN ] T=45 WR=1 RD=0 ADDR=21 DATA=74cbd36f
# KERNEL: [GEN ] T=45 WR=1 RD=0 ADDR=10 DATA=756092ef
# KERNEL: [GEN ] T=45 WR=0 RD=1 ADDR=10 DATA=cbf54b9c
# KERNEL: [GEN ] T=45 WR=1 RD=0 ADDR=14 DATA=10a2b490
# KERNEL: [GEN ] T=45 WR=0 RD=1 ADDR=00 DATA=28a380b4
# KERNEL: [GEN ] T=45 WR=0 RD=1 ADDR=14 DATA=d1168115
# KERNEL: [GEN ] T=45 WR=0 RD=1 ADDR=28 DATA=88203f3e
# KERNEL: [GEN ] T=45 WR=0 RD=1 ADDR=10 DATA=14df2c8c
# KERNEL: [GEN ] T=45 WR=1 RD=0 ADDR=22 DATA=be768651
# KERNEL: [GEN ] T=45 WR=1 RD=0 ADDR=2b DATA=bc5afd2d
# KERNEL: [GEN ] T=45 WR=1 RD=0 ADDR=22 DATA=a59d0415
# KERNEL: [GEN ] T=45 WR=0 RD=1 ADDR=26 DATA=5002fba1
# KERNEL: [GEN ] T=45 WR=0 RD=1 ADDR=04 DATA=b88b5e80
# KERNEL: [GEN ] T=45 WR=1 RD=0 ADDR=2c DATA=020be002
# KERNEL: [GEN ] T=45 WR=1 RD=0 ADDR=10 DATA=e277263d
# KERNEL: [GEN ] T=45 WR=0 RD=1 ADDR=10 DATA=2cf37029
# KERNEL: [GEN ] T=45 WR=1 RD=0 ADDR=29 DATA=f79f6399
# KERNEL: [GEN ] T=45 WR=0 RD=1 ADDR=00 DATA=74f39fb1
# KERNEL: [GEN ] T=45 WR=0 RD=1 ADDR=04 DATA=55af5d17
# KERNEL: [GEN ] T=45 WR=1 RD=0 ADDR=10 DATA=a22d281f
# KERNEL: [GEN ] T=45 WR=1 RD=0 ADDR=29 DATA=30c01345
# KERNEL: [GEN ] T=45 WR=0 RD=1 ADDR=28 DATA=743fb79e
# KERNEL: [GEN ] T=45 WR=1 RD=0 ADDR=08 DATA=0d733f51
# KERNEL: [GEN ] T=45 WR=1 RD=0 ADDR=14 DATA=cd6105a4
# KERNEL: [GEN ] T=45 WR=1 RD=0 ADDR=10 DATA=fde42b0f
# KERNEL: [GEN ] T=45 WR=0 RD=1 ADDR=04 DATA=7dbc4aa9
# KERNEL: [GEN ] T=45 WR=1 RD=0 ADDR=23 DATA=0cda30b2
# KERNEL: [GEN ] T=45 WR=0 RD=1 ADDR=25 DATA=6428e665
# KERNEL: [GEN ] T=45 WR=1 RD=0 ADDR=26 DATA=1d25c78c
# KERNEL: [GEN ] T=45 WR=0 RD=1 ADDR=21 DATA=b6e5ca73
# KERNEL: [GEN ] T=45 WR=1 RD=0 ADDR=2f DATA=7ecca11a
# KERNEL: [GEN ] T=45 WR=1 RD=0 ADDR=08 DATA=5b0f8ac9
# KERNEL: [GEN ] T=45 WR=1 RD=0 ADDR=10 DATA=30ee1791
# KERNEL: [GEN ] T=45 WR=0 RD=1 ADDR=28 DATA=bc3234c4
# KERNEL: [GEN ] T=45 WR=0 RD=1 ADDR=10 DATA=ea7f75ad
# KERNEL: [GEN ] T=45 WR=1 RD=0 ADDR=23 DATA=6aed2eee
# KERNEL: [GEN ] T=45 WR=1 RD=0 ADDR=2b DATA=0a5229d1
# KERNEL: [GEN ] T=45 WR=0 RD=1 ADDR=28 DATA=72a47105
# KERNEL: [GEN ] T=45 WR=1 RD=0 ADDR=10 DATA=c35b91fc
# KERNEL: [GEN ] T=45 WR=1 RD=0 ADDR=08 DATA=c250fd2b
# KERNEL: [GEN ] T=45 WR=1 RD=0 ADDR=04 DATA=a46227cc
# KERNEL: [GEN ] T=45 WR=0 RD=1 ADDR=20 DATA=280c8507
# KERNEL: [GEN ] T=45 WR=0 RD=1 ADDR=08 DATA=686ab719
# KERNEL: [GEN ] T=45 WR=1 RD=0 ADDR=14 DATA=16fa176d
# KERNEL: [GEN ] T=45 WR=0 RD=1 ADDR=24 DATA=235ff8b7
# KERNEL: [GEN ] T=45 WR=0 RD=1 ADDR=04 DATA=8366f33f
# KERNEL: [GEN ] T=45 WR=1 RD=0 ADDR=2c DATA=fc8f191c
# KERNEL: [GEN ] T=45 WR=0 RD=1 ADDR=00 DATA=6695b226
# KERNEL: [GEN ] T=45 WR=1 RD=0 ADDR=08 DATA=12aeef9a
# KERNEL: [GEN ] T=45 WR=0 RD=1 ADDR=10 DATA=a379a90b
# KERNEL: [GEN ] T=45 WR=1 RD=0 ADDR=22 DATA=eee55dfe
# KERNEL: [GEN ] T=45 WR=1 RD=0 ADDR=24 DATA=550604ca
# KERNEL: [GEN ] T=45 WR=0 RD=1 ADDR=14 DATA=2eac6b9b
# KERNEL: [GEN ] T=45 WR=1 RD=0 ADDR=04 DATA=b69d4337
# KERNEL: [GEN ] T=45 WR=0 RD=1 ADDR=21 DATA=44f4a059
# KERNEL: [GEN ] T=45 WR=0 RD=1 ADDR=2f DATA=4b33b80d
# KERNEL: [GEN ] T=45 WR=0 RD=1 ADDR=00 DATA=f714a270
# KERNEL: [GEN ] T=45 WR=0 RD=1 ADDR=28 DATA=fad07e01
# KERNEL: [GEN ] T=45 WR=1 RD=0 ADDR=00 DATA=efe89d81
# KERNEL: [GEN ] T=45 WR=1 RD=0 ADDR=14 DATA=8c686415
# KERNEL: [GEN ] T=45 WR=0 RD=1 ADDR=14 DATA=c3cc2164
# KERNEL: [GEN ] T=45 WR=0 RD=1 ADDR=27 DATA=258eab0f
# KERNEL: [GEN ] T=45 WR=1 RD=0 ADDR=21 DATA=0afe15fa
# KERNEL: [GEN ] T=45 WR=1 RD=0 ADDR=2e DATA=eae5a66f
# KERNEL: [GEN ] T=45 WR=1 RD=0 ADDR=24 DATA=7942a9b3
# KERNEL: [GEN ] T=45 WR=1 RD=0 ADDR=04 DATA=ac0014cc
# KERNEL: [GEN ] T=45 WR=1 RD=0 ADDR=22 DATA=4b4640f0
# KERNEL: [GEN ] T=45 WR=0 RD=1 ADDR=14 DATA=1017f6c8
# KERNEL: [GEN ] T=45 WR=0 RD=1 ADDR=10 DATA=879d0ded
# KERNEL: [GEN ] T=45 WR=1 RD=0 ADDR=25 DATA=ccd7b335
# KERNEL: [GEN ] T=45 WR=1 RD=0 ADDR=20 DATA=4a8ff05d
# KERNEL: [GEN ] T=45 WR=0 RD=1 ADDR=00 DATA=68a41c89
# KERNEL: [GEN ] T=45 WR=0 RD=1 ADDR=00 DATA=9e9ed588
# KERNEL: [GEN ] T=45 WR=0 RD=1 ADDR=00 DATA=b9df88bf
# KERNEL: [GEN ] T=45 WR=1 RD=0 ADDR=2f DATA=d170d286
# KERNEL: [GEN ] T=45 WR=0 RD=1 ADDR=2e DATA=6279b113
# KERNEL: [GEN ] T=45 WR=0 RD=1 ADDR=22 DATA=b0bd4ba2
# KERNEL: [GEN ] T=45 WR=1 RD=0 ADDR=04 DATA=3bc721f8
# KERNEL: [GEN ] T=45 WR=0 RD=1 ADDR=14 DATA=0df871e3
# KERNEL: [GEN ] T=45 WR=1 RD=0 ADDR=10 DATA=388e12ef
# KERNEL: [GEN ] T=45 WR=1 RD=0 ADDR=22 DATA=cd162a8a
# KERNEL: [GEN ] T=45 WR=1 RD=0 ADDR=14 DATA=1701f8da
# KERNEL: [GEN ] T=45 WR=1 RD=0 ADDR=10 DATA=85a5537f
# KERNEL: [GEN ] T=45 WR=0 RD=1 ADDR=10 DATA=e3ad9460
# KERNEL: [GEN ] T=45 WR=1 RD=0 ADDR=14 DATA=26caa642
# KERNEL: [GEN ] T=45 WR=1 RD=0 ADDR=00 DATA=04797295
# KERNEL: [GEN ] T=45 WR=0 RD=1 ADDR=20 DATA=012efc2f
# KERNEL: [GEN ] T=45 WR=1 RD=0 ADDR=2c DATA=efaa3438
# KERNEL: [GEN ] T=45 WR=1 RD=0 ADDR=2f DATA=467139bd
# KERNEL: [GEN ] T=45 WR=1 RD=0 ADDR=22 DATA=13df3c47
# KERNEL: [GEN ] T=45 WR=0 RD=1 ADDR=00 DATA=f6d2a476
# KERNEL: [GEN ] T=45 WR=1 RD=0 ADDR=27 DATA=cb6dc480
# KERNEL: [GEN ] T=45 WR=1 RD=0 ADDR=04 DATA=a55f0a9e
# KERNEL: [GEN ] T=45 WR=0 RD=1 ADDR=22 DATA=fa871c55
# KERNEL: [GEN ] T=45 WR=0 RD=1 ADDR=10 DATA=20aa3733
# KERNEL: [GEN ] T=45 WR=0 RD=1 ADDR=00 DATA=7bbf66e4
# KERNEL: [GEN ] T=45 WR=0 RD=1 ADDR=29 DATA=4189d40d
# KERNEL: [GEN ] T=45 WR=1 RD=0 ADDR=04 DATA=71dd9658
# KERNEL: [GEN ] T=45 WR=1 RD=0 ADDR=24 DATA=d4947925
# KERNEL: [GEN ] T=45 WR=1 RD=0 ADDR=04 DATA=4b2e75b0
# KERNEL: [GEN ] T=45 WR=1 RD=0 ADDR=14 DATA=fa7520d6
# KERNEL: [GEN ] T=45 WR=1 RD=0 ADDR=23 DATA=97b6a84d
# KERNEL: [GEN ] T=45 WR=1 RD=0 ADDR=14 DATA=09f53514
# KERNEL: [GEN ] T=45 WR=0 RD=1 ADDR=14 DATA=cddc084e
# KERNEL: [GEN ] T=45 WR=1 RD=0 ADDR=22 DATA=81077e66
# KERNEL: [GEN ] T=45 WR=1 RD=0 ADDR=2f DATA=81047c43
# KERNEL: [GEN ] T=45 WR=1 RD=0 ADDR=2b DATA=9deacfda
# KERNEL: [GEN ] T=45 WR=0 RD=1 ADDR=10 DATA=5338b188
# KERNEL: [GEN ] T=45 WR=1 RD=0 ADDR=28 DATA=ae9e2d8b
# KERNEL: [GEN ] T=45 WR=1 RD=0 ADDR=20 DATA=df49c101
# KERNEL: [GEN ] T=45 WR=1 RD=0 ADDR=04 DATA=c8c57744
# KERNEL: [GEN ] T=45 WR=1 RD=0 ADDR=14 DATA=40e9a12f
# KERNEL: [GEN ] T=45 WR=1 RD=0 ADDR=20 DATA=d57d6764
# KERNEL: [GEN ] T=45 WR=1 RD=0 ADDR=14 DATA=fc05ed48
# KERNEL: [GEN ] T=45 WR=1 RD=0 ADDR=29 DATA=fb06b53f
# KERNEL: [DRV ] T=55 WR=1 RD=0 ADDR=2e WDATA=4692eb62
# KERNEL: [DRV ] T=75 WR=1 RD=0 ADDR=23 WDATA=1d21c58c
# KERNEL: [MON ] T=75 ADDR=2e RDATA=00000000
# KERNEL: [DRV ] T=95 WR=0 RD=1 ADDR=10 WDATA=4360c359
# KERNEL: [MON ] T=95 ADDR=23 RDATA=00000000
# KERNEL: [DRV ] T=115 WR=1 RD=0 ADDR=14 WDATA=07574a75
# KERNEL: [MON ] T=115 ADDR=10 RDATA=deadbeef
# KERNEL: [DRV ] T=135 WR=1 RD=0 ADDR=2c WDATA=e33fb40d
# KERNEL: [MON ] T=135 ADDR=14 RDATA=deadbeef
# KERNEL: [DRV ] T=155 WR=1 RD=0 ADDR=2e WDATA=ac590fcc
# KERNEL: [MON ] T=155 ADDR=2c RDATA=deadbeef
# KERNEL: [DRV ] T=175 WR=1 RD=0 ADDR=14 WDATA=85494fde
# KERNEL: [MON ] T=175 ADDR=2e RDATA=deadbeef
# KERNEL: [DRV ] T=195 WR=1 RD=0 ADDR=00 WDATA=2f79f892
# KERNEL: [MON ] T=195 ADDR=14 RDATA=deadbeef
# KERNEL: [DRV ] T=215 WR=0 RD=1 ADDR=14 WDATA=c83f2a11
# KERNEL: [MON ] T=215 ADDR=00 RDATA=deadbeef
# KERNEL: [DRV ] T=235 WR=1 RD=0 ADDR=27 WDATA=e7c3712c
# KERNEL: [MON ] T=235 ADDR=14 RDATA=00000000
# KERNEL: [DRV ] T=255 WR=0 RD=1 ADDR=21 WDATA=644abc4b
# KERNEL: [MON ] T=255 ADDR=27 RDATA=00000000
# KERNEL: [DRV ] T=275 WR=0 RD=1 ADDR=00 WDATA=fdbdbe6e
# KERNEL: [MON ] T=275 ADDR=21 RDATA=deadbeef
# KERNEL: [DRV ] T=295 WR=0 RD=1 ADDR=08 WDATA=5fc36e2c
# KERNEL: [MON ] T=295 ADDR=00 RDATA=2f79f892
# KERNEL: [DRV ] T=315 WR=1 RD=0 ADDR=14 WDATA=380f500a
# KERNEL: [MON ] T=315 ADDR=08 RDATA=00000000
# KERNEL: [DRV ] T=335 WR=0 RD=1 ADDR=20 WDATA=8b87d276
# KERNEL: [MON ] T=335 ADDR=14 RDATA=00000000
# KERNEL: [DRV ] T=355 WR=1 RD=0 ADDR=20 WDATA=970e94e9
# KERNEL: [MON ] T=355 ADDR=20 RDATA=deadbeef
# KERNEL: [DRV ] T=375 WR=1 RD=0 ADDR=08 WDATA=30121396
# KERNEL: [MON ] T=375 ADDR=20 RDATA=deadbeef
# KERNEL: [DRV ] T=395 WR=1 RD=0 ADDR=26 WDATA=c0ccf29e
# KERNEL: [MON ] T=395 ADDR=08 RDATA=deadbeef
# KERNEL: [DRV ] T=415 WR=1 RD=0 ADDR=23 WDATA=60d7be8a
# KERNEL: [MON ] T=415 ADDR=26 RDATA=deadbeef
# KERNEL: [DRV ] T=435 WR=1 RD=0 ADDR=14 WDATA=ac299cbc
# KERNEL: [MON ] T=435 ADDR=23 RDATA=deadbeef
# KERNEL: [DRV ] T=455 WR=0 RD=1 ADDR=10 WDATA=213389d0
# KERNEL: [MON ] T=455 ADDR=14 RDATA=deadbeef
# KERNEL: [DRV ] T=475 WR=0 RD=1 ADDR=10 WDATA=ad75cd66
# KERNEL: [MON ] T=475 ADDR=10 RDATA=deadbeef
# KERNEL: [DRV ] T=495 WR=0 RD=1 ADDR=04 WDATA=61606342
# KERNEL: [MON ] T=495 ADDR=10 RDATA=deadbeef
# KERNEL: [DRV ] T=515 WR=0 RD=1 ADDR=04 WDATA=563ff66a
# KERNEL: [MON ] T=515 ADDR=04 RDATA=00000000
# KERNEL: [DRV ] T=535 WR=0 RD=1 ADDR=25 WDATA=62824b91
# KERNEL: [MON ] T=535 ADDR=04 RDATA=00000000
# KERNEL: [DRV ] T=555 WR=1 RD=0 ADDR=26 WDATA=ff9fbe07
# KERNEL: [MON ] T=555 ADDR=25 RDATA=deadbeef
# KERNEL: [DRV ] T=575 WR=1 RD=0 ADDR=25 WDATA=fb89dabc
# KERNEL: [MON ] T=575 ADDR=26 RDATA=deadbeef
# KERNEL: [DRV ] T=595 WR=0 RD=1 ADDR=2c WDATA=9b2484c4
# KERNEL: [MON ] T=595 ADDR=25 RDATA=deadbeef
# KERNEL: [DRV ] T=615 WR=0 RD=1 ADDR=29 WDATA=659a7c98
# KERNEL: [MON ] T=615 ADDR=2c RDATA=deadbeef
# KERNEL: [DRV ] T=635 WR=0 RD=1 ADDR=14 WDATA=d57c0671
# KERNEL: [MON ] T=635 ADDR=29 RDATA=deadbeef
# KERNEL: [DRV ] T=655 WR=0 RD=1 ADDR=2f WDATA=d56deb5c
# KERNEL: [MON ] T=655 ADDR=14 RDATA=00000000
# KERNEL: [DRV ] T=675 WR=1 RD=0 ADDR=24 WDATA=4d46572e
# KERNEL: [MON ] T=675 ADDR=2f RDATA=deadbeef
# KERNEL: [DRV ] T=695 WR=1 RD=0 ADDR=08 WDATA=c3d7578d
# KERNEL: [MON ] T=695 ADDR=24 RDATA=deadbeef
# KERNEL: [DRV ] T=715 WR=1 RD=0 ADDR=21 WDATA=06e8c578
# KERNEL: [MON ] T=715 ADDR=08 RDATA=deadbeef
# KERNEL: [DRV ] T=735 WR=1 RD=0 ADDR=00 WDATA=ac5e2323
# KERNEL: [MON ] T=735 ADDR=21 RDATA=deadbeef
# KERNEL: [DRV ] T=755 WR=0 RD=1 ADDR=2f WDATA=03b04cac
# KERNEL: [MON ] T=755 ADDR=00 RDATA=deadbeef
# KERNEL: [DRV ] T=775 WR=0 RD=1 ADDR=2c WDATA=43a2df20
# KERNEL: [MON ] T=775 ADDR=2f RDATA=deadbeef
# KERNEL: [DRV ] T=795 WR=0 RD=1 ADDR=14 WDATA=5bf66dd5
# KERNEL: [MON ] T=795 ADDR=2c RDATA=deadbeef
# KERNEL: [DRV ] T=815 WR=1 RD=0 ADDR=04 WDATA=76ba8054
# KERNEL: [MON ] T=815 ADDR=14 RDATA=00000000
# KERNEL: [DRV ] T=835 WR=0 RD=1 ADDR=00 WDATA=f962ccf6
# KERNEL: [MON ] T=835 ADDR=04 RDATA=00000000
# KERNEL: [DRV ] T=855 WR=0 RD=1 ADDR=08 WDATA=7ca44f01
# KERNEL: [MON ] T=855 ADDR=00 RDATA=ac5e2323
# KERNEL: [DRV ] T=875 WR=0 RD=1 ADDR=10 WDATA=c1de7f82
# KERNEL: [MON ] T=875 ADDR=08 RDATA=0000000b
# KERNEL: [DRV ] T=895 WR=0 RD=1 ADDR=2f WDATA=a052f836
# KERNEL: [MON ] T=895 ADDR=10 RDATA=deadbeef
# KERNEL: [DRV ] T=915 WR=0 RD=1 ADDR=10 WDATA=1095a88c
# KERNEL: [MON ] T=915 ADDR=2f RDATA=deadbeef
# KERNEL: [DRV ] T=935 WR=0 RD=1 ADDR=04 WDATA=1690bd1a
# KERNEL: [MON ] T=935 ADDR=10 RDATA=deadbeef
# KERNEL: [DRV ] T=955 WR=0 RD=1 ADDR=24 WDATA=dfd9fb8c
# KERNEL: [MON ] T=955 ADDR=04 RDATA=00000004
# KERNEL: [DRV ] T=975 WR=1 RD=0 ADDR=00 WDATA=75e83474
# KERNEL: [MON ] T=975 ADDR=24 RDATA=deadbeef
# KERNEL: [DRV ] T=995 WR=1 RD=0 ADDR=2d WDATA=9c999234
# KERNEL: [MON ] T=995 ADDR=00 RDATA=deadbeef
# KERNEL: [DRV ] T=1015 WR=0 RD=1 ADDR=24 WDATA=4980577e
# KERNEL: [MON ] T=1015 ADDR=2d RDATA=deadbeef
# KERNEL: [DRV ] T=1035 WR=0 RD=1 ADDR=22 WDATA=8eef70d9
# KERNEL: [MON ] T=1035 ADDR=24 RDATA=deadbeef
# KERNEL: [DRV ] T=1055 WR=1 RD=0 ADDR=08 WDATA=7e2462db
# KERNEL: [MON ] T=1055 ADDR=22 RDATA=deadbeef
# KERNEL: [DRV ] T=1075 WR=0 RD=1 ADDR=08 WDATA=c7e53dbb
# KERNEL: [MON ] T=1075 ADDR=08 RDATA=deadbeef
# KERNEL: [DRV ] T=1095 WR=1 RD=0 ADDR=24 WDATA=c7caf3e3
# KERNEL: [MON ] T=1095 ADDR=08 RDATA=00000018
# KERNEL: [DRV ] T=1115 WR=0 RD=1 ADDR=04 WDATA=8d7c36d8
# KERNEL: [MON ] T=1115 ADDR=24 RDATA=00000018
# KERNEL: [DRV ] T=1135 WR=1 RD=0 ADDR=2c WDATA=01bdb4d1
# KERNEL: [MON ] T=1135 ADDR=04 RDATA=00000004
# KERNEL: [DRV ] T=1155 WR=0 RD=1 ADDR=04 WDATA=94feef8a
# KERNEL: [MON ] T=1155 ADDR=2c RDATA=00000004
# KERNEL: [DRV ] T=1175 WR=0 RD=1 ADDR=24 WDATA=3a639686
# KERNEL: [MON ] T=1175 ADDR=04 RDATA=00000004
# KERNEL: [DRV ] T=1195 WR=0 RD=1 ADDR=24 WDATA=0d7c9977
# KERNEL: [MON ] T=1195 ADDR=24 RDATA=deadbeef
# KERNEL: [DRV ] T=1215 WR=0 RD=1 ADDR=10 WDATA=3ba704b5
# KERNEL: [MON ] T=1215 ADDR=24 RDATA=deadbeef
# KERNEL: [DRV ] T=1235 WR=0 RD=1 ADDR=2e WDATA=9bee22ee
# KERNEL: [MON ] T=1235 ADDR=10 RDATA=deadbeef
# KERNEL: [DRV ] T=1255 WR=0 RD=1 ADDR=10 WDATA=ceb0f9cb
# KERNEL: [MON ] T=1255 ADDR=2e RDATA=deadbeef
# KERNEL: [DRV ] T=1275 WR=0 RD=1 ADDR=2c WDATA=d795431f
# KERNEL: [MON ] T=1275 ADDR=10 RDATA=deadbeef
# KERNEL: [DRV ] T=1295 WR=0 RD=1 ADDR=14 WDATA=1c5ea54c
# KERNEL: [MON ] T=1295 ADDR=2c RDATA=deadbeef
# KERNEL: [DRV ] T=1315 WR=1 RD=0 ADDR=10 WDATA=c009370b
# KERNEL: [MON ] T=1315 ADDR=14 RDATA=00000000
# KERNEL: [DRV ] T=1335 WR=0 RD=1 ADDR=08 WDATA=3b6d8432
# KERNEL: [MON ] T=1335 ADDR=10 RDATA=00000000
# KERNEL: [DRV ] T=1355 WR=1 RD=0 ADDR=14 WDATA=0e41d1d8
